<?xml version="1.0" encoding="UTF-8" standalone="no"?>
<svg width="32px" height="32px" viewBox="0 0 32 32" version="1.1" xmlns="http://www.w3.org/2000/svg" xmlns:xlink="http://www.w3.org/1999/xlink">
    <!-- Generator: sketchtool 48.2 (47327) - http://www.bohemiancoding.com/sketch -->
    <title>C2FF543D-24CA-468D-9626-DD54498956B3</title>
    <desc>Created with sketchtool.</desc>
    <defs></defs>
    <g id="mega_spring_dashboard_01" stroke="none" stroke-width="1" fill="none" fill-rule="evenodd" transform="translate(-268.000000, -14.000000)">
        <g id="Group-13" transform="translate(268.000000, 14.000000)">
            <circle id="Oval" fill="#EAEEF1" cx="16" cy="16" r="16"></circle>
            <g id="continuous" opacity="0.125679348" transform="translate(5.841270, 6.857143)" fill="#000000" fill-rule="nonzero">
                <path d="M17.0222982,13.7895611 C16.7359001,13.5722265 16.3273803,13.6279255 16.1097924,13.9138761 C16.0680288,13.9687515 16.0252232,14.0229335 15.9814191,14.0764652 C15.3282214,14.8745 14.4482757,15.5224725 13.3626808,16.0042149 C13.3572975,16.0065989 13.3519577,16.0090263 13.3466612,16.0115836 C11.633743,16.8278236 9.62969475,16.939395 7.70743725,16.3268791 C6.01974223,15.7782546 4.64657713,14.716072 3.62584181,13.1697198 C2.86775743,11.9561746 2.47048162,10.6371264 2.44221951,9.24590781 C2.44152489,9.21205495 2.44156831,9.17811538 2.44130783,9.14421917 L3.24020079,9.14421917 C3.54057794,9.14421917 3.69100529,8.7816337 3.47858364,8.5695873 L2.02740469,7.12067582 C1.89573192,6.98920879 1.68226835,6.98920879 1.55059558,7.12067582 L0.0994166327,8.5695873 C-0.112961606,8.7816337 0.0374657441,9.14421917 0.337799484,9.14421917 L1.1378646,9.14421917 C1.14828381,10.8226453 1.61467372,12.4103492 2.52548637,13.8654158 C2.52817799,13.869707 2.53091304,13.8739115 2.53364808,13.8781593 C3.72126441,15.6805104 5.32630037,16.9204096 7.30786053,17.5645244 C8.25731108,17.867033 9.22464794,18.0173553 10.1775716,18.0173553 C11.4727228,18.017312 12.7409144,17.7396404 13.8997042,17.1888919 C15.2571103,16.5851319 16.3496079,15.747956 17.1467209,14.700641 C17.3643522,14.4147338 17.3086094,14.0068523 17.0222982,13.7895611 Z" id="Shape"></path>
                <g id="man-user" transform="translate(5.079365, 3.809524)">
                    <path d="M5.06048268,6.45877261 C6.53006196,6.45877261 7.72150351,5.0129415 7.72150351,3.22940517 C7.72150351,1.44583111 7.33033575,0 5.06048268,0 C2.79062961,0 2.39938632,1.44583111 2.39938632,3.22940517 C2.39938632,5.0129415 3.59082788,6.45877261 5.06048268,6.45877261 Z" id="Shape"></path>
                    <path d="M0.035190556,11.4337607 C0.033990556,11.2391751 0.032790556,11.3789365 0.035190556,11.4337607 Z" id="Shape"></path>
                    <path d="M10.0864106,11.4758019 C10.0902106,11.4456633 10.0877106,11.2667033 10.0864106,11.4758019 Z" id="Shape"></path>
                    <path d="M10.0807459,11.2592428 C10.0314628,8.15227937 9.62534018,7.26696345 6.51756181,6.70656145 C6.51756181,6.70656145 6.08009441,7.2635298 5.06044492,7.2635298 C4.04079542,7.2635298 3.60325249,6.70656145 3.60325249,6.70656145 C0.529386912,7.26085079 0.0985661179,8.13303583 0.0419189237,11.1583086 C0.0372738538,11.4053428 0.0351212604,11.4183227 0.0342904349,11.3896461 C0.0344792589,11.4433771 0.0347058476,11.5427643 0.0347058476,11.7160693 C0.0347058476,11.7160693 0.774593733,13.2063492 5.06044492,13.2063492 C9.34622057,13.2063492 10.086184,11.7160693 10.086184,11.7160693 C10.086184,11.6047209 10.0862595,11.527294 10.0863728,11.4746195 C10.085542,11.4923537 10.0838803,11.4579795 10.0807459,11.2592428 Z" id="Shape"></path>
                </g>
                <path d="M19.9740605,9.01049817 L19.1740388,9.01049817 C19.1739954,8.83226129 19.168699,8.65198718 19.1582363,8.47466056 C19.0751865,7.06978816 18.6560304,5.68641514 17.9460914,4.47408364 C17.2538651,3.29200733 16.2837064,2.26640842 15.1404586,1.50812149 C13.9781088,0.73713431 12.6322941,0.24130464 11.2484927,0.0742942613 C9.71053046,-0.111354701 8.14652015,0.0993479853 6.72547009,0.683385836 C5.33190069,1.2561105 4.09231855,2.17976068 3.14074074,3.35446825 C2.91455705,3.63361355 2.95792701,4.04305556 3.23750916,4.26888584 C3.51717813,4.49467277 3.92717406,4.45141392 4.15335775,4.17222527 C4.20198074,4.1121917 4.25164564,4.05302503 4.30200516,3.99450855 C5.0953412,3.07328571 6.10010039,2.34668437 7.22120743,1.88592125 C8.43656492,1.38645055 9.77521639,1.20634982 11.0922046,1.36529792 C12.2752191,1.50807814 13.4258472,1.93199756 14.4197531,2.59128327 C15.3985511,3.24055617 16.2291792,4.11852015 16.8217718,5.1304652 C17.4286908,6.16685714 17.7870682,7.34975702 17.8580925,8.55129548 C17.8626075,8.62771368 17.8659938,8.70473871 17.8682947,8.78189377 C17.8705522,8.85818193 17.8716375,8.93455678 17.8716809,9.01054151 L17.071746,9.01054151 C16.7713689,9.01054151 16.6209415,9.37312698 16.8333632,9.58517338 L18.2845421,11.0340849 C18.4162149,11.1655519 18.6296785,11.1655519 18.7613512,11.0340849 L20.2125302,9.58517338 C20.4248216,9.37308364 20.2743942,9.01049817 19.9740605,9.01049817 Z" id="Shape"></path>
            </g>
        </g>
    </g>
</svg>